{
  "tracks": {
    "href": "https://api.spotify.com/v1/search?query=Like+Toy+Soldiers&type=track&include_external=audio&market=CA&locale=en-US%2Cen%3Bq%3D0.9&offset=0&limit=2",
    "items": [
      {
        "album": {
          "album_type": "album",
          "artists": [
            {
              "external_urls": {
                "spotify": "https://open.spotify.com/artist/7dGJo4pcD2V6oG8kP0tJRR"
              },
              "href": "https://api.spotify.com/v1/artists/7dGJo4pcD2V6oG8kP0tJRR",
              "id": "7dGJo4pcD2V6oG8kP0tJRR",
              "name": "Eminem",
              "type": "artist",
              "uri": "spotify:artist:7dGJo4pcD2V6oG8kP0tJRR"
            }
          ],
          "external_urls": {
            "spotify": "https://open.spotify.com/album/1kTlYbs28MXw7hwO0NLYif"
          },
          "href": "https://api.spotify.com/v1/albums/1kTlYbs28MXw7hwO0NLYif",
          "id": "1kTlYbs28MXw7hwO0NLYif",
          "images": [
            {
              "height": 640,
              "url": "https://i.scdn.co/image/ab67616d0000b273726d48d93d02e1271774f023",
              "width": 640
            },
            {
              "height": 300,
              "url": "https://i.scdn.co/image/ab67616d00001e02726d48d93d02e1271774f023",
              "width": 300
            },
            {
              "height": 64,
              "url": "https://i.scdn.co/image/ab67616d00004851726d48d93d02e1271774f023",
              "width": 64
            }
          ],
          "name": "Encore (Deluxe Version)",
          "release_date": "2004-11-12",
          "release_date_precision": "day",
          "total_tracks": 23,
          "type": "album",
          "uri": "spotify:album:1kTlYbs28MXw7hwO0NLYif"
        },
        "artists": [
          {
            "external_urls": {
              "spotify": "https://open.spotify.com/artist/7dGJo4pcD2V6oG8kP0tJRR"
            },
            "href": "https://api.spotify.com/v1/artists/7dGJo4pcD2V6oG8kP0tJRR",
            "id": "7dGJo4pcD2V6oG8kP0tJRR",
            "name": "Eminem",
            "type": "artist",
            "uri": "spotify:artist:7dGJo4pcD2V6oG8kP0tJRR"
          }
        ],
        "disc_number": 1,
        "duration_ms": 296880,
        "explicit": true,
        "external_ids": {
          "isrc": "USIR10400812"
        },
        "external_urls": {
          "spotify": "https://open.spotify.com/track/6CN3e26iQSj1N5lomh0mfO"
        },
        "href": "https://api.spotify.com/v1/tracks/6CN3e26iQSj1N5lomh0mfO",
        "id": "6CN3e26iQSj1N5lomh0mfO",
        "is_local": false,
        "is_playable": true,
        "name": "Like Toy Soldiers",
        "popularity": 69,
        "preview_url": "https://p.scdn.co/mp3-preview/9ba3a76fd9cf5abaaeee784c9b2b1ee866ebf363?cid=774b29d4f13844c495f206cafdad9c86",
        "track_number": 5,
        "type": "track",
        "uri": "spotify:track:6CN3e26iQSj1N5lomh0mfO"
      },
      {
        "album": {
          "album_type": "album",
          "artists": [
            {
              "external_urls": {
                "spotify": "https://open.spotify.com/artist/68EB3QvNdVLkC7SAgDbHIR"
              },
              "href": "https://api.spotify.com/v1/artists/68EB3QvNdVLkC7SAgDbHIR",
              "id": "68EB3QvNdVLkC7SAgDbHIR",
              "name": "Marianas Trench",
              "type": "artist",
              "uri": "spotify:artist:68EB3QvNdVLkC7SAgDbHIR"
            }
          ],
          "external_urls": {
            "spotify": "https://open.spotify.com/album/737av5XsHhJigOC64BV6IY"
          },
          "href": "https://api.spotify.com/v1/albums/737av5XsHhJigOC64BV6IY",
          "id": "737av5XsHhJigOC64BV6IY",
          "images": [
            {
              "height": 640,
              "url": "https://i.scdn.co/image/ab67616d0000b273222615f0da1d91df294824cc",
              "width": 640
            },
            {
              "height": 300,
              "url": "https://i.scdn.co/image/ab67616d00001e02222615f0da1d91df294824cc",
              "width": 300
            },
            {
              "height": 64,
              "url": "https://i.scdn.co/image/ab67616d00004851222615f0da1d91df294824cc",
              "width": 64
            }
          ],
          "name": "Ever After",
          "release_date": "2011-11-21",
          "release_date_precision": "day",
          "total_tracks": 12,
          "type": "album",
          "uri": "spotify:album:737av5XsHhJigOC64BV6IY"
        },
        "artists": [
          {
            "external_urls": {
              "spotify": "https://open.spotify.com/artist/68EB3QvNdVLkC7SAgDbHIR"
            },
            "href": "https://api.spotify.com/v1/artists/68EB3QvNdVLkC7SAgDbHIR",
            "id": "68EB3QvNdVLkC7SAgDbHIR",
            "name": "Marianas Trench",
            "type": "artist",
            "uri": "spotify:artist:68EB3QvNdVLkC7SAgDbHIR"
          }
        ],
        "disc_number": 1,
        "duration_ms": 394120,
        "explicit": true,
        "external_ids": {
          "isrc": "CAB391100628"
        },
        "external_urls": {
          "spotify": "https://open.spotify.com/track/5GJWdBG4jJmmJzKmDxOwGC"
        },
        "href": "https://api.spotify.com/v1/tracks/5GJWdBG4jJmmJzKmDxOwGC",
        "id": "5GJWdBG4jJmmJzKmDxOwGC",
        "is_local": false,
        "is_playable": true,
        "name": "Ever After",
        "popularity": 46,
        "preview_url": "https://p.scdn.co/mp3-preview/9f876aabaefde954af327bbfda26351f94756d17?cid=774b29d4f13844c495f206cafdad9c86",
        "track_number": 1,
        "type": "track",
        "uri": "spotify:track:5GJWdBG4jJmmJzKmDxOwGC"
      }
    ],
    "limit": 2,
    "next": "https://api.spotify.com/v1/search?query=Like+Toy+Soldiers&type=track&include_external=audio&market=CA&locale=en-US%2Cen%3Bq%3D0.9&offset=2&limit=2",
    "offset": 0,
    "previous": null,
    "total": 543
  }
}
"
Genre for Deftones is  [
  {
    count: 100,
    name: 'Nu Metal',
    url: 'https://www.last.fm/tag/Nu+Metal'
  },
  { count: 95, name: 'metal', url: 'https://www.last.fm/tag/metal' },
  {
    count: 90,
    name: 'alternative',
    url: 'https://www.last.fm/tag/alternative'
  }
]
Genre for D4M $loan is  []
Genre for Kanye West is  [
  {
    count: 100,
    name: 'Hip-Hop',
    url: 'https://www.last.fm/tag/Hip-Hop'
  },
  { count: 69, name: 'rap', url: 'https://www.last.fm/tag/rap' }
]
Genre for Cardo Grandz is  []
Genre for arai tasuku is  [
  {
    count: 100,
    name: 'ambient',
    url: 'https://www.last.fm/tag/ambient'
  },
  {
    count: 100,
    name: 'post-rock',
    url: 'https://www.last.fm/tag/post-rock'
  },
  {
    count: 67,
    name: 'electronic',
    url: 'https://www.last.fm/tag/electronic'
  }
]
Genre for Kevin Penkin is  [
  {
    count: 100,
    name: 'Soundtrack',
    url: 'https://www.last.fm/tag/Soundtrack'
  },
  {
    count: 72,
    name: 'composer',
    url: 'https://www.last.fm/tag/composer'
  },
  { count: 72, name: 'anime', url: 'https://www.last.fm/tag/anime' }
]
Genre for Neovaii is  [
  {
    count: 100,
    name: 'electronic',
    url: 'https://www.last.fm/tag/electronic'
  },
  {
    count: 50,
    name: 'alternative',
    url: 'https://www.last.fm/tag/alternative'
  },
  { count: 50, name: 'dance', url: 'https://www.last.fm/tag/dance' }
]
Genre for Ghen is  []
Genre for One Hope is  [
  {
    count: 100,
    name: 'hardcore',
    url: 'https://www.last.fm/tag/hardcore'
  },
  { count: 58, name: 'antifa', url: 'https://www.last.fm/tag/antifa' }
]
Genre for Skypierr is  [
  {
    count: 100,
    name: 'Hip-Hop',
    url: 'https://www.last.fm/tag/Hip-Hop'
  },
  {
    count: 100,
    name: 'hip hop',
    url: 'https://www.last.fm/tag/hip+hop'
  },
  { count: 100, name: 'rap', url: 'https://www.last.fm/tag/rap' }
]
Genre for Three Days Grace is  [
  {
    count: 100,
    name: 'alternative rock',
    url: 'https://www.last.fm/tag/alternative+rock'
  },
  { count: 86, name: 'rock', url: 'https://www.last.fm/tag/rock' },
  {
    count: 61,
    name: 'alternative',
    url: 'https://www.last.fm/tag/alternative'
  }
]
Genre for RADIXNCE is  []
Genre for Silent Boy is  []
Genre for ACER SPADE is  []
Genre for Benn is  [
  {
    count: 100,
    name: 'metalcore',
    url: 'https://www.last.fm/tag/metalcore'
  },
  {
    count: 100,
    name: 'alternative metal',
    url: 'https://www.last.fm/tag/alternative+metal'
  },
  { count: 50, name: 'metal', url: 'https://www.last.fm/tag/metal' }
]
Genre for Hellhills is  [
  {
    count: 100,
    name: 'electronic',
    url: 'https://www.last.fm/tag/electronic'
  },
  {
    count: 100,
    name: 'alternative rock',
    url: 'https://www.last.fm/tag/alternative+rock'
  },
  {
    count: 100,
    name: 'Progressive',
    url: 'https://www.last.fm/tag/Progressive'
  }
]
Genre for ANAIT is  []
Genre for アトラスサウンドチーム is  [
  {
    count: 100,
    name: 'Soundtrack',
    url: 'https://www.last.fm/tag/Soundtrack'
  },
  { count: 100, name: 'jazz', url: 'https://www.last.fm/tag/jazz' },
  { count: 100, name: 'rock', url: 'https://www.last.fm/tag/rock' }
]
Genre for Hamish Balfour is  []
Genre for 石元 丈晴 is  [
  {
    count: 100,
    name: 'Soundtrack',
    url: 'https://www.last.fm/tag/Soundtrack'
  },
  {
    count: 94,
    name: 'video game music',
    url: 'https://www.last.fm/tag/video+game+music'
  },
  {
    count: 67,
    name: 'instrumental',
    url: 'https://www.last.fm/tag/instrumental'
  }
]
Genre for Gus McArthur is  []
Genre for MEJKO is  [
  {
    count: 100,
    name: 'electronic',
    url: 'https://www.last.fm/tag/electronic'
  },
  {
    count: 100,
    name: 'Drum and bass',
    url: 'https://www.last.fm/tag/Drum+and+bass'
  },
  { count: 100, name: 'trap', url: 'https://www.last.fm/tag/trap' }
]
Genre for Arrested Youth is  [
  {
    count: 100,
    name: 'electronic',
    url: 'https://www.last.fm/tag/electronic'
  },
  { count: 100, name: 'indie', url: 'https://www.last.fm/tag/indie' },
  {
    count: 50,
    name: 'alternative',
    url: 'https://www.last.fm/tag/alternative'
  }
]
Genre for Dead Robot is  [
  {
    count: 100,
    name: 'electronic',
    url: 'https://www.last.fm/tag/electronic'
  },
  {
    count: 100,
    name: 'electronica',
    url: 'https://www.last.fm/tag/electronica'
  },
  {
    count: 100,
    name: 'dubstep',
    url: 'https://www.last.fm/tag/dubstep'
  }
]
Genre for Fifty Grand is  [
  {
    count: 100,
    name: 'electronic',
    url: 'https://www.last.fm/tag/electronic'
  },
  {
    count: 67,
    name: 'ambient',
    url: 'https://www.last.fm/tag/ambient'
  },
  {
    count: 50,
    name: 'experimental',
    url: 'https://www.last.fm/tag/experimental'
  }
]
Genre for Kuoga. is  [
  {
    count: 50,
    name: 'electronic',
    url: 'https://www.last.fm/tag/electronic'
  },
  {
    count: 50,
    name: 'experimental',
    url: 'https://www.last.fm/tag/experimental'
  }
]
Genre for GillStudio is  []
Genre for Steve Aoki is  [
  {
    count: 100,
    name: 'electronic',
    url: 'https://www.last.fm/tag/electronic'
  },
  {
    count: 70,
    name: 'electro',
    url: 'https://www.last.fm/tag/electro'
  },
  { count: 58, name: 'dance', url: 'https://www.last.fm/tag/dance' }
]
Genre for screwyounick is  [
  {
    count: 100,
    name: 'emo rap',
    url: 'https://www.last.fm/tag/emo+rap'
  }
]
Genre for Mystery Skulls is  [
  {
    count: 100,
    name: 'synthpop',
    url: 'https://www.last.fm/tag/synthpop'
  },
  {
    count: 91,
    name: 'electronic',
    url: 'https://www.last.fm/tag/electronic'
  },
  {
    count: 81,
    name: 'electropop',
    url: 'https://www.last.fm/tag/electropop'
  }
]
Genre for Wizard is  [
  {
    count: 100,
    name: 'Power metal',
    url: 'https://www.last.fm/tag/Power+metal'
  },
  {
    count: 61,
    name: 'heavy metal',
    url: 'https://www.last.fm/tag/heavy+metal'
  }
]
Genre for Oddscure is  [
  {
    count: 100,
    name: 'electronica',
    url: 'https://www.last.fm/tag/electronica'
  },
  { count: 100, name: 'dark', url: 'https://www.last.fm/tag/dark' },
  { count: 100, name: 'techno', url: 'https://www.last.fm/tag/techno' }
]
Genre for Thybxlle is  []
Genre for Cepheid is  [
  {
    count: 100,
    name: 'metalcore',
    url: 'https://www.last.fm/tag/metalcore'
  },
  {
    count: 50,
    name: 'alternative metal',
    url: 'https://www.last.fm/tag/alternative+metal'
  },
  {
    count: 50,
    name: 'post-hardcore',
    url: 'https://www.last.fm/tag/post-hardcore'
  }
]
Genre for Arvid Häggström is  []
Genre for Oshi is  [
  { count: 100, name: 'soul', url: 'https://www.last.fm/tag/soul' },
  { count: 100, name: 'beats', url: 'https://www.last.fm/tag/beats' },
  {
    count: 100,
    name: 'future bass',
    url: 'https://www.last.fm/tag/future+bass'
  }
]
Genre for Mr.Kitty is  [
  {
    count: 100,
    name: 'synthpop',
    url: 'https://www.last.fm/tag/synthpop'
  },
  {
    count: 78,
    name: 'electronic',
    url: 'https://www.last.fm/tag/electronic'
  },
  { count: 62, name: '8-bit', url: 'https://www.last.fm/tag/8-bit' }
]
Genre for Besomorph is  [
  {
    count: 100,
    name: 'electronic',
    url: 'https://www.last.fm/tag/electronic'
  }
]
Genre for grandson is  [
  {
    count: 100,
    name: 'indie rock',
    url: 'https://www.last.fm/tag/indie+rock'
  },
  {
    count: 90,
    name: 'alternative',
    url: 'https://www.last.fm/tag/alternative'
  },
  {
    count: 80,
    name: 'alternative rock',
    url: 'https://www.last.fm/tag/alternative+rock'
  }
]
Genre for Linkin Park is  [
  { count: 100, name: 'rock', url: 'https://www.last.fm/tag/rock' },
  {
    count: 92,
    name: 'Nu Metal',
    url: 'https://www.last.fm/tag/Nu+Metal'
  },
  {
    count: 74,
    name: 'alternative rock',
    url: 'https://www.last.fm/tag/alternative+rock'
  }
]
Genre for CloudNone is  [
  {
    count: 100,
    name: 'chillout',
    url: 'https://www.last.fm/tag/chillout'
  },
  {
    count: 100,
    name: 'future garage',
    url: 'https://www.last.fm/tag/future+garage'
  },
  {
    count: 50,
    name: 'electronic',
    url: 'https://www.last.fm/tag/electronic'
  }
]
Genre for Faux Tales is  [
  {
    count: 100,
    name: 'dubstep',
    url: 'https://www.last.fm/tag/dubstep'
  },
  {
    count: 84,
    name: 'chillstep',
    url: 'https://www.last.fm/tag/chillstep'
  },
  {
    count: 67,
    name: 'melodic dubstep',
    url: 'https://www.last.fm/tag/melodic+dubstep'
  }
]
Genre for ... Bender is  [
  {
    count: 100,
    name: 'brooding',
    url: 'https://www.last.fm/tag/brooding'
  },
  { count: 67, name: 'Lo-Fi', url: 'https://www.last.fm/tag/Lo-Fi' },
  {
    count: 67,
    name: 'melancholy',
    url: 'https://www.last.fm/tag/melancholy'
  }
]
Genre for Animadrop is  [
  {
    count: 100,
    name: 'melodic dubstep',
    url: 'https://www.last.fm/tag/melodic+dubstep'
  },
  {
    count: 50,
    name: 'dubstep',
    url: 'https://www.last.fm/tag/dubstep'
  },
  {
    count: 50,
    name: 'Drum and bass',
    url: 'https://www.last.fm/tag/Drum+and+bass'
  }
]
Genre for Shiro Sagisu is  [
  {
    count: 100,
    name: 'Soundtrack',
    url: 'https://www.last.fm/tag/Soundtrack'
  },
  { count: 84, name: 'anime', url: 'https://www.last.fm/tag/anime' },
  {
    count: 62,
    name: 'instrumental',
    url: 'https://www.last.fm/tag/instrumental'
  }
]
Genre for Dove Cameron is  [
  { count: 100, name: 'pop', url: 'https://www.last.fm/tag/pop' },
  { count: 100, name: 'Disney', url: 'https://www.last.fm/tag/Disney' },
  {
    count: 54,
    name: 'better than selena gomez',
    url: 'https://www.last.fm/tag/better+than+selena+gomez'
  }
]
Genre for The Glitch Mob is  [
  { count: 100, name: 'glitch', url: 'https://www.last.fm/tag/glitch' },
  {
    count: 89,
    name: 'electronic',
    url: 'https://www.last.fm/tag/electronic'
  },
  {
    count: 68,
    name: 'glitch-hop',
    url: 'https://www.last.fm/tag/glitch-hop'
  }
]
Genre for Rifti Beats is  [
  { count: 100, name: 'chill', url: 'https://www.last.fm/tag/chill' },
  { count: 100, name: 'Lo-Fi', url: 'https://www.last.fm/tag/Lo-Fi' },
  {
    count: 50,
    name: 'electronic',
    url: 'https://www.last.fm/tag/electronic'
  }
]
Genre for Punishing Gray Raven is  []
Genre for BEATSMASH is  [
  {
    count: 100,
    name: 'electronic',
    url: 'https://www.last.fm/tag/electronic'
  }
]
Genre for JKuch is  [
  {
    count: 100,
    name: 'electronic',
    url: 'https://www.last.fm/tag/electronic'
  },
  {
    count: 100,
    name: 'future bass',
    url: 'https://www.last.fm/tag/future+bass'
  },
  {
    count: 67,
    name: 'indie pop',
    url: 'https://www.last.fm/tag/indie+pop'
  }
]
Genre for Inova is  []
Genre for Casey Edwards is  [
  {
    count: 100,
    name: 'Soundtrack',
    url: 'https://www.last.fm/tag/Soundtrack'
  },
  {
    count: 50,
    name: 'electronic',
    url: 'https://www.last.fm/tag/electronic'
  },
  {
    count: 50,
    name: 'bang bang bang',
    url: 'https://www.last.fm/tag/bang+bang+bang'
  }
]
Genre for Thousand Foot Krutch is  [
  {
    count: 100,
    name: 'alternative rock',
    url: 'https://www.last.fm/tag/alternative+rock'
  },
  {
    count: 96,
    name: 'christian rock',
    url: 'https://www.last.fm/tag/christian+rock'
  },
  { count: 88, name: 'rock', url: 'https://www.last.fm/tag/rock' }
]
Genre for Avril Lavigne is  [
  { count: 100, name: 'pop', url: 'https://www.last.fm/tag/pop' },
  {
    count: 99,
    name: 'pop rock',
    url: 'https://www.last.fm/tag/pop+rock'
  },
  { count: 93, name: 'rock', url: 'https://www.last.fm/tag/rock' }
]
Genre for Rok Nardin is  [
  {
    count: 100,
    name: 'Soundtrack',
    url: 'https://www.last.fm/tag/Soundtrack'
  },
  {
    count: 100,
    name: 'cinematic',
    url: 'https://www.last.fm/tag/cinematic'
  },
  {
    count: 100,
    name: 'epic pop',
    url: 'https://www.last.fm/tag/epic+pop'
  }
]
Genre for Mr FijiWiji is  [
  {
    count: 100,
    name: 'chillstep',
    url: 'https://www.last.fm/tag/chillstep'
  },
  {
    count: 82,
    name: 'electronic',
    url: 'https://www.last.fm/tag/electronic'
  },
  {
    count: 82,
    name: 'dubstep',
    url: 'https://www.last.fm/tag/dubstep'
  }
]
Genre for Mitchel Dae is  []
Genre for Magnetude is  [
  {
    count: 100,
    name: 'Drum and bass',
    url: 'https://www.last.fm/tag/Drum+and+bass'
  },
  {
    count: 100,
    name: 'neurofunk',
    url: 'https://www.last.fm/tag/neurofunk'
  }
]
Genre for Season of Ghosts is  [
  {
    count: 100,
    name: 'trance metal',
    url: 'https://www.last.fm/tag/trance+metal'
  },
  {
    count: 70,
    name: 'modern metal',
    url: 'https://www.last.fm/tag/modern+metal'
  }
]
Genre for Logic is  [
  {
    count: 100,
    name: 'Hip-Hop',
    url: 'https://www.last.fm/tag/Hip-Hop'
  },
  { count: 80, name: 'rap', url: 'https://www.last.fm/tag/rap' }
]
Genre for iamjakehill is  [
  { count: 100, name: 'rap', url: 'https://www.last.fm/tag/rap' },
  {
    count: 80,
    name: 'Hip-Hop',
    url: 'https://www.last.fm/tag/Hip-Hop'
  },
  {
    count: 60,
    name: 'underground rap',
    url: 'https://www.last.fm/tag/underground+rap'
  }
]
Genre for Dear Agony is  [
  {
    count: 100,
    name: 'modern rock',
    url: 'https://www.last.fm/tag/modern+rock'
  },
  {
    count: 50,
    name: 'alt. metal',
    url: 'https://www.last.fm/tag/alt.+metal'
  },
  {
    count: 50,
    name: 'alt. rock',
    url: 'https://www.last.fm/tag/alt.+rock'
  }
]
Genre for Sanixels is  [
  {
    count: 100,
    name: 'Drum and bass',
    url: 'https://www.last.fm/tag/Drum+and+bass'
  },
  { count: 100, name: 'dnb', url: 'https://www.last.fm/tag/dnb' },
  {
    count: 100,
    name: 'melodic drum and bass',
    url: 'https://www.last.fm/tag/melodic+drum+and+bass'
  }
]
Genre for Yeeaah Boii is  []
Genre for Arctic Monkeys is  [
  {
    count: 100,
    name: 'indie rock',
    url: 'https://www.last.fm/tag/indie+rock'
  },
  { count: 98, name: 'indie', url: 'https://www.last.fm/tag/indie' },
  { count: 63, name: 'rock', url: 'https://www.last.fm/tag/rock' }
]
Genre for Unlike Pluto is  [
  {
    count: 100,
    name: 'electronic',
    url: 'https://www.last.fm/tag/electronic'
  },
  {
    count: 84,
    name: 'dubstep',
    url: 'https://www.last.fm/tag/dubstep'
  },
  { count: 50, name: 'House', url: 'https://www.last.fm/tag/House' }
]
Genre for Whales is  [
  {
    count: 100,
    name: 'dubstep',
    url: 'https://www.last.fm/tag/dubstep'
  }
]
Genre for Duke Deuce is  [
  { count: 100, name: 'Crunk', url: 'https://www.last.fm/tag/Crunk' },
  { count: 84, name: 'rap', url: 'https://www.last.fm/tag/rap' },
  {
    count: 50,
    name: 'hip hop',
    url: 'https://www.last.fm/tag/hip+hop'
  }
]
Genre for AREZRA is  []
Genre for VGM Muzo is  []
Genre for stxrm808 is  []
Genre for Lukas Rossi is  [
  { count: 100, name: 'rock', url: 'https://www.last.fm/tag/rock' },
  {
    count: 78,
    name: 'lukas rossi',
    url: 'https://www.last.fm/tag/lukas+rossi'
  },
  {
    count: 56,
    name: 'acoustic',
    url: 'https://www.last.fm/tag/acoustic'
  }
]
Genre for COSMIC is  [
  { count: 100, name: 'trance', url: 'https://www.last.fm/tag/trance' },
  {
    count: 100,
    name: 'Hip-Hop',
    url: 'https://www.last.fm/tag/Hip-Hop'
  },
  { count: 100, name: 'vocal', url: 'https://www.last.fm/tag/vocal' }
]
Genre for Erik Rico is  [
  { count: 100, name: 'soul', url: 'https://www.last.fm/tag/soul' },
  { count: 100, name: 'funk', url: 'https://www.last.fm/tag/funk' },
  { count: 72, name: 'jazz', url: 'https://www.last.fm/tag/jazz' }
]
Genre for Sace is  []
Genre for Lana Del Rey is  [
  { count: 94, name: 'indie', url: 'https://www.last.fm/tag/indie' },
  {
    count: 89,
    name: 'indie pop',
    url: 'https://www.last.fm/tag/indie+pop'
  },
  { count: 81, name: 'pop', url: 'https://www.last.fm/tag/pop' }
]
Genre for hatis noit is  [
  {
    count: 100,
    name: 'experimental',
    url: 'https://www.last.fm/tag/experimental'
  },
  {
    count: 75,
    name: 'contemporary classical',
    url: 'https://www.last.fm/tag/contemporary+classical'
  }
]
Genre for Saphir is  [
  { count: 100, name: 'rock', url: 'https://www.last.fm/tag/rock' },
  { count: 72, name: 'Disco', url: 'https://www.last.fm/tag/Disco' },
  { count: 72, name: 'Hi-NRG', url: 'https://www.last.fm/tag/Hi-NRG' }
]
Genre for Good Bear is  [
  { count: 100, name: 'chill', url: 'https://www.last.fm/tag/chill' },
  { count: 100, name: 'idm', url: 'https://www.last.fm/tag/idm' },
  { count: 100, name: 'drums', url: 'https://www.last.fm/tag/drums' }
]
Genre for Synktra is  [
  {
    count: 100,
    name: 'electronic',
    url: 'https://www.last.fm/tag/electronic'
  },
  {
    count: 100,
    name: 'instrumental',
    url: 'https://www.last.fm/tag/instrumental'
  }
]
Genre for Ivy is  [
  { count: 100, name: 'indie', url: 'https://www.last.fm/tag/indie' },
  {
    count: 74,
    name: 'indie pop',
    url: 'https://www.last.fm/tag/indie+pop'
  },
  {
    count: 64,
    name: 'chillout',
    url: 'https://www.last.fm/tag/chillout'
  }
]
Genre for okjett is  []
Genre for Nonon is  [
  { count: 100, name: 'trance', url: 'https://www.last.fm/tag/trance' },
  {
    count: 100,
    name: 'chillout',
    url: 'https://www.last.fm/tag/chillout'
  },
  {
    count: 100,
    name: 'Progressive',
    url: 'https://www.last.fm/tag/Progressive'
  }
]
Genre for RIELL is  []
Genre for Avonlea is  [
  { count: 100, name: 'pop', url: 'https://www.last.fm/tag/pop' },
  { count: 50, name: 'rnb', url: 'https://www.last.fm/tag/rnb' }
]
Genre for Jessie Reyez is  [
  { count: 100, name: 'pop', url: 'https://www.last.fm/tag/pop' },
  { count: 60, name: 'rnb', url: 'https://www.last.fm/tag/rnb' },
  { count: 50, name: 'soul', url: 'https://www.last.fm/tag/soul' }
]
Genre for STUPIDBEATS is  [
  { count: 100, name: 'trap', url: 'https://www.last.fm/tag/trap' },
  { count: 100, name: 'phonk', url: 'https://www.last.fm/tag/phonk' }
]
Genre for Swan is  [
  {
    count: 100,
    name: 'Italo Disco',
    url: 'https://www.last.fm/tag/Italo+Disco'
  }
]
Genre for Dubskie is  []
Genre for Trap Music Now is  []
Genre for Victor Borba is  []
Genre for Scizzahz is  [
  {
    count: 100,
    name: 'Hip-Hop',
    url: 'https://www.last.fm/tag/Hip-Hop'
  },
  {
    count: 50,
    name: 'UK hip hop',
    url: 'https://www.last.fm/tag/UK+hip+hop'
  },
  {
    count: 50,
    name: 'under 2000 listeners',
    url: 'https://www.last.fm/tag/under+2000+listeners'
  }
]
Genre for Adam Tell is  [
  { count: 100, name: 'piano', url: 'https://www.last.fm/tag/piano' },
  {
    count: 50,
    name: 'electronic',
    url: 'https://www.last.fm/tag/electronic'
  },
  {
    count: 50,
    name: 'synth pop',
    url: 'https://www.last.fm/tag/synth+pop'
  }
]
Genre for Fatal FE is  [
  {
    count: 100,
    name: 'trancecore',
    url: 'https://www.last.fm/tag/trancecore'
  }
]
Genre for Endlesssssleep is  []
Genre for Machine Gun Kelly is  [
  {
    count: 100,
    name: 'Hip-Hop',
    url: 'https://www.last.fm/tag/Hip-Hop'
  },
  { count: 84, name: 'rap', url: 'https://www.last.fm/tag/rap' }
]
Genre for Eminem is  [
  { count: 100, name: 'rap', url: 'https://www.last.fm/tag/rap' },
  {
    count: 78,
    name: 'Hip-Hop',
    url: 'https://www.last.fm/tag/Hip-Hop'
  }
]
Genre for Coma is  [ { count: 100, name: 'rock', url: 'https://www.last.fm/tag/rock' } ]
Genre for Luna Goami is  []
Genre for Tommy Ludgate is  [
  {
    count: 50,
    name: 'the bedford',
    url: 'https://www.last.fm/tag/the+bedford'
  },
  {
    count: 50,
    name: 'virally female',
    url: 'https://www.last.fm/tag/virally+female'
  }
]
Genre for Jasiah is  [
  { count: 100, name: 'rap', url: 'https://www.last.fm/tag/rap' },
  {
    count: 100,
    name: 'Trap Metal',
    url: 'https://www.last.fm/tag/Trap+Metal'
  },
  {
    count: 50,
    name: 'Hip-Hop',
    url: 'https://www.last.fm/tag/Hip-Hop'
  }
]
Genre for Dutch Melrose is  [
  { count: 100, name: 'pop', url: 'https://www.last.fm/tag/pop' },
  { count: 100, name: 'rock', url: 'https://www.last.fm/tag/rock' },
  {
    count: 100,
    name: 'alternative',
    url: 'https://www.last.fm/tag/alternative'
  }
]
Genre for Flowersie is  []
Genre for Ashley Apollodor is  []
Genre for Nito is  [
  {
    count: 100,
    name: 'instrumental',
    url: 'https://www.last.fm/tag/instrumental'
  },
  { count: 100, name: 'guitar', url: 'https://www.last.fm/tag/guitar' },
  {
    count: 67,
    name: 'math rock',
    url: 'https://www.last.fm/tag/math+rock'
  }
]
Genre for Idris Elba is  [
  { count: 100, name: 'rnb', url: 'https://www.last.fm/tag/rnb' },
  { count: 80, name: 'soul', url: 'https://www.last.fm/tag/soul' }
]
Genre for Dutchy is  [
  {
    count: 100,
    name: 'hip hop',
    url: 'https://www.last.fm/tag/hip+hop'
  },
  {
    count: 100,
    name: 'instrumental',
    url: 'https://www.last.fm/tag/instrumental'
  },
  { count: 100, name: 'beats', url: 'https://www.last.fm/tag/beats' }
]
Genre for sowre is  []
Something went wrong with getting genres for track {
  error: 6,
  message: 'The artist you supplied could not be found',
  links: []
}
Something went wrong with getting genres for track {
  error: 6,
  message: 'The artist you supplied could not be found',
  links: []
}
Genre for Kurt Zed is  []
Genre for Brandon Lim is  []
Genre for CVSTILLX is  []
Genre for prodzephyr is  []
"